…
We can now work with `routes` using familiar country or state names rather than
codes. For instance, let's find the states that have the highest number of
active survey routes.

```{r}
routes_regions %>% 
  subset(active == TRUE) %>%    # subset to currently-active routes
  group_by(state_name) %>%      # group by state
  summarize(n_routes = n()) %>% # count number of routes (i.e. rows) by group (i.e. state)
  arrange(desc(n_routes))       # arrange states in descending order of n_routes
#> # A tibble: 62 x 2
#>    state_name       n_routes
#>    <chr>               <int>
#>  1 California            225
#>  2 Texas                 198
#>  3 Ontario               196
#>  4 Alberta               180
#>  5 Quebec                166
#>  6 British Columbia      142
#>  7 Colorado              135
#>  8 Saskatchewan          123
#>  9 Oregon                119
#> 10 New York              112
#> # ... with 52 more rows
```
…
